# reto de cambio de los 4 colores del primer pixel
3E 88 32 00 C0 3E 08 32 00 C0 3E 80 32 00 C0 3E 00 32 00 C0 00 00 00 00 00 00 00 00 00 00 00 00 18 DE 00 00 00 00 00 00 00 00 00 00 00 00 00 00

#los 16 primeros píxeles en rojo
21 FF FF 22 00 C0 21 FF FF 22 02 C0 18 FE


#los 4 primeros píxeles en rojo
3E FF 32 00 C0 18 FE

# 24 píxeles  rojo (2) amarillo (10) cian (10) rojo (2)
21 FC F0 22 00 C0 21 F0 0F 22 02 C0 21 0F 3F 22 04 C0 18 FE

8 4 2 1    8 4 2 1
1 1 1 1    1 1 0 0  rojo rojo amarillo amarillo
F          C
1 1 1 1    0 0 0 0  amarillo amarillo amarillo amarillo
F          0
1 1	0 0	   0 0 1 1  amarillo amarillo cian cian
C 		   3
0 0 1 1	   1 1 0 0	cian cian amarillo amarillo
3		   C
0 0 0 0    1 1 1 1  cian cian cian cian
0          F
0 0 1 1	   1 1 1 1  cian cian rojo rojo
3			F


# 12 píxeles rojo (2) amarillo (2) cian (2) amarillo (2) cian (2) rojo (2)
21 FC 3C 22 00 C0 3E 3F 32 02 C0 18 FE


# 8 píxeles rojo (1) amarillo (1) cian (1) amarillo (1) cian (1) amarillo (1) cian (1) rojo (1)
21 DA 5B 22 00 C0 18 FE

1 1 0 1      1 0 1 0
D            A
0 1 0 1      1 0 1 1
5            B